%YAML 1.1
%TAG !u! tag:unity3d.com,2011:
--- !u!114 &11400000
MonoBehaviour:
  m_ObjectHideFlags: 0
  m_CorrespondingSourceObject: {fileID: 0}
  m_PrefabInstance: {fileID: 0}
  m_PrefabAsset: {fileID: 0}
  m_GameObject: {fileID: 0}
  m_Enabled: 1
  m_EditorHideFlags: 0
  m_Script: {fileID: 11500000, guid: f9acc5a3486a2f1498b9f4d5aea0560b, type: 3}
  m_Name: exampleWeapon2
  m_EditorClassIdentifier: 
  name: "Bro\u0144 2"
  description: asaas
  weaponType: Bladed
  ammunitionType: 
  model: {fileID: 4065332239657314827, guid: 5e255f7799716664794eae10ffe37781, type: 3}
