{
    "name": "DebugUIInput",
    "maps": [
        {
            "name": "DebugUI",
            "id": "ea8dee5e-e804-4c21-9b92-88ec92f1440f",
            "actions": [
                {
                    "name": "ToggleDebugUI",
                    "type": "Button",
                    "id": "47612e78-cca2-4491-9f70-92edd93260e5",
                    "expectedControlType": "Button",
                    "processors": "",
                    "interactions": "",
                    "initialStateCheck": false
                },
                {
                    "name": "SendCommand",
                    "type": "Button",
                    "id": "2fa32574-ea9c-41bf-b950-a7cb5bf7ef72",
                    "expectedControlType": "Button",
                    "processors": "",
                    "interactions": "",
                    "initialStateCheck": false
                },
                {
                    "name": "MemoryCommandUp",
                    "type": "Button",
                    "id": "01a80353-1dc3-4f22-88f2-0e9655ae77fd",
                    "expectedControlType": "Button",
                    "processors": "",
                    "interactions": "",
                    "initialStateCheck": false
                },
                {
                    "name": "MemoryCommandDown",
                    "type": "Button",
                    "id": "fb861489-758e-4420-8bf7-732f0f25de1c",
                    "expectedControlType": "Button",
                    "processors": "",
                    "interactions": "",
                    "initialStateCheck": false
                }
            ],
            "bindings": [
                {
                    "name": "",
                    "id": "0bd49432-61f6-45ce-9bcc-0700ebcbefed",
                    "path": "<Keyboard>/#(`)",
                    "interactions": "",
                    "processors": "",
                    "groups": "",
                    "action": "ToggleDebugUI",
                    "isComposite": false,
                    "isPartOfComposite": false
                },
                {
                    "name": "",
                    "id": "ee906394-b69c-4876-b18c-d2397a11ef4b",
                    "path": "<Keyboard>/enter",
                    "interactions": "",
                    "processors": "",
                    "groups": "",
                    "action": "SendCommand",
                    "isComposite": false,
                    "isPartOfComposite": false
                },
                {
                    "name": "",
                    "id": "57614449-2300-4e8f-8357-ccb5df3ec3dd",
                    "path": "<Keyboard>/upArrow",
                    "interactions": "",
                    "processors": "",
                    "groups": "",
                    "action": "MemoryCommandUp",
                    "isComposite": false,
                    "isPartOfComposite": false
                },
                {
                    "name": "",
                    "id": "7425c27c-de65-4330-a203-8186b78ee365",
                    "path": "<Keyboard>/downArrow",
                    "interactions": "",
                    "processors": "",
                    "groups": "",
                    "action": "MemoryCommandDown",
                    "isComposite": false,
                    "isPartOfComposite": false
                }
            ]
        }
    ],
    "controlSchemes": []
}